[ {
  "uid" : "4afb704fae8326e0",
  "name" : "deleteLettersAndReverseAction",
  "time" : {
    "start" : 1579181621682,
    "stop" : 1579181696267,
    "duration" : 74585
  },
  "status" : "broken",
  "severity" : "normal"
}, {
  "uid" : "29a0e82784962206",
  "name" : "deleteLettersAndReverseAction",
  "time" : {
    "start" : 1579181621681,
    "stop" : 1579181691691,
    "duration" : 70010
  },
  "status" : "passed",
  "severity" : "normal"
}, {
  "uid" : "efccc94bf57488a9",
  "name" : "deleteLettersAndReverseAction",
  "time" : {
    "start" : 1579181621676,
    "stop" : 1579181708167,
    "duration" : 86491
  },
  "status" : "passed",
  "severity" : "normal"
}, {
  "uid" : "fa807074383d8336",
  "name" : "deleteLettersAndReverseAction",
  "time" : {
    "start" : 1579181621677,
    "stop" : 1579181698913,
    "duration" : 77236
  },
  "status" : "passed",
  "severity" : "normal"
}, {
  "uid" : "903f842b72661096",
  "name" : "deleteLettersAndReverseAction",
  "time" : {
    "start" : 1579181621680,
    "stop" : 1579181691370,
    "duration" : 69690
  },
  "status" : "passed",
  "severity" : "normal"
} ]