{
  "reportName" : "Allure Report",
  "testRuns" : [ ],
  "statistic" : {
    "failed" : 0,
    "broken" : 1,
    "skipped" : 0,
    "passed" : 4,
    "unknown" : 0,
    "total" : 5
  },
  "time" : {
    "start" : 1579181621676,
    "stop" : 1579181708167,
    "duration" : 86491,
    "minDuration" : 69690,
    "maxDuration" : 86491,
    "sumDuration" : 378012
  }
}